<svg width="52" height="52" viewBox="0 0 52 52" fill="none" xmlns="http://www.w3.org/2000/svg">
<rect x="8.66699" y="8.66675" width="13" height="13" rx="1" stroke="#3E4954" stroke-width="2" stroke-linejoin="round"/>
<rect x="8.66699" y="30.3333" width="13" height="13" rx="1" stroke="#3E4954" stroke-width="2" stroke-linejoin="round"/>
<rect x="30.333" y="30.3333" width="13" height="13" rx="1" stroke="#3E4954" stroke-width="2" stroke-linejoin="round"/>
<rect x="30.333" y="8.66675" width="13" height="13" rx="1" stroke="#3E4954" stroke-width="2" stroke-linejoin="round"/>
</svg>
