<svg width="52" height="52" viewBox="0 0 52 52" fill="none" xmlns="http://www.w3.org/2000/svg">
<path d="M8.66699 15.1667C8.66699 13.97 9.63704 13 10.8337 13H13.0003C14.1969 13 15.167 13.97 15.167 15.1667C15.167 16.3633 14.1969 17.3333 13.0003 17.3333H10.8337C9.63704 17.3333 8.66699 16.3633 8.66699 15.1667ZM19.5003 15.1667C19.5003 13.97 20.4704 13 21.667 13H41.167C42.3636 13 43.3337 13.97 43.3337 15.1667C43.3337 16.3633 42.3636 17.3333 41.167 17.3333H21.667C20.4704 17.3333 19.5003 16.3633 19.5003 15.1667ZM8.66699 26C8.66699 24.8034 9.63704 23.8333 10.8337 23.8333H13.0003C14.1969 23.8333 15.167 24.8034 15.167 26C15.167 27.1966 14.1969 28.1667 13.0003 28.1667H10.8337C9.63704 28.1667 8.66699 27.1966 8.66699 26ZM19.5003 26C19.5003 24.8034 20.4704 23.8333 21.667 23.8333H41.167C42.3636 23.8333 43.3337 24.8034 43.3337 26C43.3337 27.1966 42.3636 28.1667 41.167 28.1667H21.667C20.4704 28.1667 19.5003 27.1966 19.5003 26ZM8.66699 36.8333C8.66699 35.6367 9.63704 34.6667 10.8337 34.6667H13.0003C14.1969 34.6667 15.167 35.6367 15.167 36.8333C15.167 38.03 14.1969 39 13.0003 39H10.8337C9.63704 39 8.66699 38.03 8.66699 36.8333ZM19.5003 36.8333C19.5003 35.6367 20.4704 34.6667 21.667 34.6667H41.167C42.3636 34.6667 43.3337 35.6367 43.3337 36.8333C43.3337 38.03 42.3636 39 41.167 39H21.667C20.4704 39 19.5003 38.03 19.5003 36.8333Z" fill="#3E4954"/>
</svg>
