<svg width="34" height="34" viewBox="0 0 34 34" fill="none" xmlns="http://www.w3.org/2000/svg">
<rect x="3" y="3" width="11" height="11" rx="1" stroke="#3C4469" stroke-linecap="round"/>
<rect x="3" y="20" width="11" height="11" rx="1" stroke="#3C4469" stroke-linecap="round"/>
<rect x="20" y="3" width="11" height="11" rx="1" stroke="#3C4469" stroke-linecap="round"/>
<rect x="20" y="20" width="11" height="11" rx="1" stroke="#3C4469" stroke-linecap="round"/>
</svg>
